<?xml version="1.0" encoding="UTF-8"?>
<svg width="20px" height="20px" viewBox="0 0 20 20" version="1.1" xmlns="http://www.w3.org/2000/svg" xmlns:xlink="http://www.w3.org/1999/xlink">
    <!-- Generator: Sketch 54.1 (76490) - https://sketchapp.com -->
    <title>Group 19</title>
    <desc>Created with Sketch.</desc>
    <g id="Food" stroke="none" stroke-width="1" fill="none" fill-rule="evenodd">
        <g id="My-Profile-Desktop" transform="translate(-380.000000, -520.000000)" stroke="#95BF47">
            <g id="Group-19" transform="translate(380.000000, 520.000000)">
                <rect id="Rectangle-Copy-5" fill="#FFFFFF" x="0.5" y="0.5" width="19" height="19" rx="4"></rect>
                <path d="M12.5353063,13.4895498 L11.5178184,10.4931691 L14.1022118,8.66711059 L10.9380633,8.70886658 L10,5.68667927 L9.06193666,8.70886658 L5.89778821,8.66711059 L8.48218164,10.4931691 L7.46469368,13.4895498 L10,11.5959287 L12.5353063,13.4895498 Z" id="Star" fill-opacity="0.15" fill="#95BF47"></path>
            </g>
        </g>
    </g>
</svg>